<svg width="9" height="14" viewBox="0 0 9 14" fill="none" xmlns="http://www.w3.org/2000/svg">
<path d="M6.23779 6.46264C6.61398 6.08646 7.22391 6.08646 7.6001 6.46265C7.97629 6.83884 7.97629 7.44876 7.6001 7.82495L2.29996 13.1251C1.92377 13.5013 1.31385 13.5013 0.937658 13.1251C0.561468 12.7489 0.561468 12.139 0.937658 11.7628L6.23779 6.46264Z" fill="#D9D9D9"/>
<path d="M6.23779 7.7085C6.61398 8.08469 7.22391 8.08469 7.6001 7.7085C7.97629 7.33231 7.97629 6.72238 7.6001 6.34619L2.29996 1.04606C1.92377 0.669868 1.31385 0.669869 0.937658 1.04606C0.561468 1.42225 0.561468 2.03217 0.937658 2.40836L6.23779 7.7085Z" fill="#D9D9D9"/>
</svg>
