<svg width="10" height="11" viewBox="0 0 10 11" fill="none" xmlns="http://www.w3.org/2000/svg">
<rect x="5.59375" y="10.1982" width="1.40936" height="9.88208" rx="0.70468" transform="rotate(-180 5.59375 10.1982)" fill="#6F6464"/>
<path d="M5.38746 9.03175C5.66265 9.30694 5.66265 9.75312 5.38746 10.0283C5.11226 10.3035 4.66608 10.3035 4.39089 10.0283L0.513669 6.15109C0.238474 5.8759 0.238475 5.42972 0.513669 5.15452C0.788864 4.87933 1.23504 4.87933 1.51024 5.15452L5.38746 9.03175Z" fill="#6F6464"/>
<path d="M4.38989 9.03175C4.11469 9.30694 4.11469 9.75312 4.38989 10.0283C4.66508 10.3035 5.11126 10.3035 5.38645 10.0283L9.26367 6.15109C9.53887 5.8759 9.53887 5.42972 9.26367 5.15452C8.98848 4.87933 8.5423 4.87933 8.26711 5.15452L4.38989 9.03175Z" fill="#6F6464"/>
</svg>
