<svg width="26" height="20" viewBox="0 0 26 20" fill="none" xmlns="http://www.w3.org/2000/svg">
<path d="M8.72624 19.3124C8.06734 19.3124 7.43559 19.0509 6.97 18.5853L1.45679 13.0721C0.487061 12.1024 0.487061 10.53 1.45679 9.55961C2.42651 8.58988 3.99892 8.58988 4.96864 9.55961L8.72561 13.3166L20.977 1.06647C21.9467 0.0967414 23.5191 0.0967414 24.4895 1.06647C25.4592 2.03619 25.4592 3.6086 24.4895 4.57832L10.4825 18.5853C10.0169 19.0509 9.38515 19.3124 8.72624 19.3124Z" fill="#EAC249"/>
</svg>
