<svg width="48" height="36" viewBox="0 0 48 36" fill="none" xmlns="http://www.w3.org/2000/svg">
<path d="M40.1859 3.2608C40.1859 3.2608 36.2881 0.647603 30.1172 0.263428L29.2609 2.70454C29.2689 2.68854 26.5196 2.27635 26.3435 2.26034C24.7908 2.10827 23.1301 2.12428 21.5733 2.24433C21.3893 2.26034 18.64 2.70054 18.64 2.70454L17.7836 0.263428C11.6128 0.647603 7.715 3.2608 7.715 3.2608C-1.49721 17.4873 0.987924 29.1806 0.987924 29.1806C4.07333 32.4381 12.9414 35.2634 12.9414 35.2634L15.2985 31.1495L11.5287 29.4368L12.085 28.3243C15.3265 29.945 19.0362 30.8334 22.6538 31.0255C25.8873 31.1976 29.1928 30.7013 32.2742 29.7369C32.8785 29.5488 33.4788 29.3367 34.071 29.1006C34.2391 29.0326 35.7718 28.2762 35.8158 28.3203L36.3721 29.4328L32.6024 31.1455L34.9595 35.2594C34.9595 35.2594 43.8275 32.4301 46.9129 29.1766C46.9129 29.1846 49.3981 17.4873 40.1859 3.2608ZM16.2829 23.9142C13.9699 23.9142 12.093 21.8733 12.093 19.3522C12.093 16.831 13.9699 14.7901 16.2829 14.7901C18.596 14.7901 20.4728 16.835 20.4728 19.3522C20.4728 21.8693 18.596 23.9142 16.2829 23.9142ZM31.6179 23.9142C29.3049 23.9142 27.428 21.8733 27.428 19.3522C27.428 16.831 29.3049 14.7901 31.6179 14.7901C33.931 14.7901 35.8078 16.835 35.8078 19.3522C35.8038 21.8693 33.931 23.9142 31.6179 23.9142Z" fill="#DD7903"/>
</svg>
