<svg width="25" height="15" viewBox="0 0 25 15" fill="none" xmlns="http://www.w3.org/2000/svg">
<rect x="2.81494" y="11.8381" width="2.83921" height="2.54252" rx="1.27126" transform="rotate(90 2.81494 11.8381)" fill="#A6A6A6"/>
<rect x="2.81494" y="6.20703" width="2.83921" height="2.54252" rx="1.27126" transform="rotate(90 2.81494 6.20703)" fill="#A6A6A6"/>
<rect x="24.7024" y="0.841553" width="2.30717" height="20.0883" rx="1.15359" transform="rotate(90 24.7024 0.841553)" fill="#A6A6A6"/>
<rect x="24.7024" y="6.4729" width="2.30717" height="20.0883" rx="1.15359" transform="rotate(90 24.7024 6.4729)" fill="#A6A6A6"/>
<rect x="24.7024" y="12.1042" width="2.30717" height="20.0883" rx="1.15359" transform="rotate(90 24.7024 12.1042)" fill="#A6A6A6"/>
<rect x="2.81494" y="0.575439" width="2.83921" height="2.54252" rx="1.27126" transform="rotate(90 2.81494 0.575439)" fill="#A6A6A6"/>
</svg>
