<svg width="15" height="17" viewBox="0 0 15 17" fill="none" xmlns="http://www.w3.org/2000/svg">
<path d="M13.3828 11.7213C12.4245 13.6881 10.3315 15.0505 7.90424 15.0505C4.57067 15.0505 1.86853 12.4792 1.86853 9.30869C1.86853 6.13822 4.57067 3.56689 7.90424 3.56689C9.44938 3.56689 10.859 4.11968 11.9268 5.02731" stroke="#D9D9D9" stroke-width="2" stroke-miterlimit="10" stroke-linecap="round" stroke-linejoin="round"/>
<path d="M8.2294 6.38433L11.9121 5.04338L10.4784 1.47705" stroke="#D9D9D9" stroke-width="2" stroke-miterlimit="10" stroke-linecap="round" stroke-linejoin="round"/>
</svg>
