<svg width="156" height="93" viewBox="0 0 156 93" fill="none" xmlns="http://www.w3.org/2000/svg">
<path d="M155.29 68.7562C155.27 58.3862 148.78 48.9762 137.06 47.5962C142.26 26.1762 121.02 7.24617 98.96 21.0362C94.94 9.07617 83.62 0.466172 70.31 0.496172C53.65 0.536172 40.18 14.0662 40.22 30.7262C40.22 31.0162 40.24 31.3062 40.24 31.5962C37.57 30.8662 34.77 30.4662 31.87 30.4762C14.62 30.5162 0.670047 44.5362 0.710047 61.7862C0.750047 79.0362 14.77 92.9862 32.02 92.9462L132.19 92.7062L132.18 92.6262C144.54 91.6462 155.32 81.3662 155.29 68.7562ZM93.48 60.9162L83.9 51.3362V83.6662H72.11V51.3362L62.53 60.9162L54.2 52.5862L78.23 28.5162L101.82 52.5862L93.48 60.9162Z" fill="url(#paint0_linear_14_322)"/>
<defs>
<linearGradient id="paint0_linear_14_322" x1="77.9997" y1="-6.41843" x2="77.9997" y2="100.506" gradientUnits="userSpaceOnUse">
<stop stop-color="#6F6464"/>
<stop offset="1" stop-color="#6F6464" stop-opacity="0"/>
</linearGradient>
</defs>
</svg>
