<svg width="51" height="36" viewBox="0 0 51 36" fill="none" xmlns="http://www.w3.org/2000/svg">
<path d="M49.7019 5.73009C49.1241 3.58009 47.4352 1.88565 45.2797 1.30787C41.3797 0.263428 25.7464 0.263428 25.7464 0.263428C25.7464 0.263428 10.113 0.263428 6.21302 1.30787C4.06302 1.88565 2.36858 3.58009 1.7908 5.73009C0.746353 9.63009 0.746353 17.7634 0.746353 17.7634C0.746353 17.7634 0.746353 25.8968 1.7908 29.7968C2.36302 31.9468 4.05746 33.6412 6.21302 34.219C10.113 35.2634 25.7464 35.2634 25.7464 35.2634C25.7464 35.2634 41.3797 35.2634 45.2797 34.219C47.4297 33.6412 49.1241 31.9523 49.7019 29.7968C50.7464 25.8968 50.7464 17.7634 50.7464 17.7634C50.7464 17.7634 50.7464 9.63009 49.7019 5.73009ZM20.7464 25.2634V10.2634L33.7352 17.7634L20.7464 25.2634Z" fill="#DD7903"/>
</svg>
